simulation/qsim/ram.msim.vcd
$comment
	File created using the following command:
		vcd file ram.msim.vcd -direction
$end
$date
	Mon Dec 02 21:00:29 2024
$end
$version
	ModelSim Version 10.1d
$end
$timescale
	1ps
$end
$scope module alu_control_vlg_vec_tst $end
$var reg 2 ! ALUOp [1:0] $end
$var reg 4 " Funct [3:0] $end
$var wire 1 # Control [3] $end
$var wire 1 $ Control [2] $end
$var wire 1 % Control [1] $end
$var wire 1 & Control [0] $end
$var wire 1 ' sampler $end
$scope module i1 $end
$var wire 1 ( gnd $end
$var wire 1 ) vcc $end
$var wire 1 * unknown $end
$var tri1 1 + devclrn $end
$var tri1 1 , devpor $end
$var tri1 1 - devoe $end
$var wire 1 . inst4~combout $end
$var wire 1 / inst5~0_combout $end
$var wire 1 0 inst6~0_combout $end
$var wire 1 1 inst12~0_combout $end
$var wire 1 2 inst12~1_combout $end
$var wire 1 3 Funct~combout [3] $end
$var wire 1 4 Funct~combout [2] $end
$var wire 1 5 Funct~combout [1] $end
$var wire 1 6 Funct~combout [0] $end
$var wire 1 7 ALUOp~combout [1] $end
$var wire 1 8 ALUOp~combout [0] $end
$upscope $end
$upscope $end
$enddefinitions $end
#0
$dumpvars
b11 !
b1000 "
1&
0%
0$
1#
x'
0(
1)
x*
1+
1,
1-
1.
0/
00
01
12
06
05
04
13
18
17
$end
#10000
b10 !
b1100 "
b1110 "
b1111 "
16
15
14
08
0'
02
0&
#20000
b0 !
b111 "
b1 !
b11 "
b1 "
b0 "
06
05
04
03
18
07
1'
0.
12
0#
1&
#30000
b11 !
b1000 "
b1010 "
15
13
17
0'
10
1.
1%
1#
#40000
b1110 "
b1100 "
05
14
1'
00
0%
#50000
b1101 "
b101 "
b1 "
16
04
03
0'
11
0.
0#
#60000
b11 "
b10 "
06
15
1'
01
10
1%
#80000
b10 !
b1010 "
b1110 "
b1100 "
b1101 "
16
05
14
13
08
0'
00
1.
02
0%
1#
0&
#90000
b101 "
b1 "
b0 "
06
04
03
1'
0.
0#
#100000
b0 !
b10 "
b1010 "
b1011 "
16
15
13
07
0'
#110000
b10 !
b1010 "
06
17
1'
10
1.
1%
1#
#120000
b10 "
b0 !
07
03
0'
00
0.
0%
0#
#130000
b1 !
b0 "
b1 "
b1001 "
16
05
13
18
1'
12
1&
#140000
b1101 "
b11 !
b10 !
b1111 "
b1110 "
08
17
06
15
14
0'
02
1.
0&
1#
#150000
b110 "
b10 "
b11 !
b11 "
18
16
04
03
1'
12
11
10
0.
1&
1%
0#
#160000
b111 "
14
0'
1/
1$
#170000
b101 "
b1101 "
b10 !
b1001 "
08
05
04
13
1'
00
0/
1.
0%
0$
1#
#180000
b1 "
03
0'
0.
0#
#190000
b0 !
b11 "
b1011 "
15
13
07
1'
01
02
0&
#200000
b1111 "
14
0'
#210000
b111 "
b11 "
04
03
1'
#220000
b1 !
18
0'
12
1&
#230000
b10 "
b11 !
b1010 "
17
06
13
1'
10
1.
1%
1#
#240000
b1000 "
05
0'
00
0%
#250000
b1100 "
b1 !
b1110 "
07
15
14
1'
0.
0#
#260000
b1100 "
05
0'
#270000
b0 !
b10 !
b1110 "
15
08
17
1'
02
1.
0&
1#
#280000
b1111 "
b11 !
b1101 "
18
16
05
0'
12
1&
#290000
b1100 "
b10 !
08
06
1'
02
0&
#300000
b11 !
18
0'
12
1&
#310000
b100 "
b110 "
b111 "
b10 !
08
16
15
03
1'
02
11
10
1/
0.
12
0&
1%
1$
0#
1&
#320000
b1111 "
b1101 "
b11 !
18
05
13
0'
00
01
0/
1.
0%
0$
1#
#330000
b10 !
08
1'
02
0&
#340000
b1001 "
b11 !
18
04
0'
12
11
1&
#350000
b1000 "
b1010 "
06
15
1'
01
10
1%
#360000
b10 !
b1011 "
16
08
0'
11
02
12
0&
1&
#370000
b11 "
b111 "
b110 "
06
14
03
1'
01
1/
0.
02
1$
0#
0&
#380000
b0 !
b1 !
18
07
0'
12
00
0/
1&
0%
0$
#390000
b1110 "
b0 !
08
13
1'
02
0&
#400000
b1010 "
b1011 "
b11 "
b1 !
18
16
04
03
0'
12
1&
#410000
b1 "
b11 !
b101 "
b1101 "
17
05
14
13
1'
1.
1#
#420000
b1100 "
b10 !
b1000 "
08
06
04
0'
02
0&
#430000
b1001 "
b11 !
18
16
1'
12
11
1&
#440000
b1 !
b1 "
03
07
0'
01
0.
0#
#450000
b11 "
b1011 "
15
13
1'
#460000
b1111 "
b1110 "
b11 !
b110 "
17
06
14
03
0'
10
1/
1%
1$
#470000
b10 !
b100 "
b0 "
b1 "
16
05
04
08
1'
11
00
0/
02
12
0%
0$
0&
1&
#480000
b1001 "
b11 !
b1011 "
b1111 "
18
15
14
13
0'
01
1.
1#
#490000
b1 !
b111 "
b0 !
b11 "
04
03
08
07
1'
0.
02
0#
0&
#500000
b10 "
b1010 "
b1 !
b1110 "
18
06
14
13
0'
12
1&
#510000
b1100 "
b11 !
17
05
1'
1.
1#
#520000
b1101 "
b101 "
b111 "
b1 !
07
16
15
03
0'
0.
0#
#530000
b0 !
b110 "
b10 !
06
08
17
1'
02
10
1/
0&
1%
1$
#540000
b10 "
b1010 "
b1000 "
b11 !
b1 !
18
07
05
04
13
0'
12
00
0/
1&
0%
0$
#550000
b1001 "
b1011 "
b0 !
b10 !
08
17
16
15
1'
02
11
10
1.
12
0&
1%
1#
1&
#560000
b1111 "
b111 "
b101 "
b0 !
07
05
14
03
0'
01
00
0.
02
0%
0#
0&
#570000
b1 "
b1001 "
b10 !
17
04
13
1'
11
1.
12
1#
1&
#580000
b1011 "
b11 "
b0 !
07
15
03
0'
01
0.
02
0#
0&
#600000
b10 "
b1 !
b0 "
18
06
05
1'
12
1&
#610000
b11 !
b1 "
b11 "
16
15
17
0'
11
10
1%
#620000
b10 !
b0 !
b1 "
05
08
07
1'
00
01
02
0%
0&
#630000
b0 "
b1 !
18
06
0'
12
1&
#640000
b100 "
b11 !
b10 !
08
17
14
1'
02
1/
0&
1$
#650000
b110 "
b0 !
b1 !
18
07
15
0'
12
0/
1&
0$
#660000
b1110 "
b1010 "
04
13
1'
#670000
b1110 "
14
0'
#680000
b1010 "
04
1'
#690000
b11 !
b10 !
b10 "
b110 "
14
03
08
17
0'
10
1/
02
1%
1$
0&
#700000
b111 "
b0 !
b1 !
b11 "
18
07
16
04
1'
12
00
0/
1&
0%
0$
#710000
b1 "
b1001 "
b1000 "
b0 !
08
06
05
13
0'
02
0&
#720000
b10 !
b1100 "
b1110 "
b1111 "
16
15
14
17
1'
1.
1#
#730000
b0 !
b1101 "
05
07
0'
0.
0#
#740000
b1100 "
06
1'
#750000
b100 "
b10 !
b110 "
17
15
03
0'
10
1/
1%
1$
#760000
b11 !
b10 "
b1010 "
b1 !
b1000 "
05
04
13
18
07
1'
00
0/
12
0%
0$
1&
#770000
b1001 "
b1101 "
b101 "
b11 !
b111 "
17
16
15
14
03
0'
11
10
1/
1%
1$
#780000
b10 !
b11 "
b0 !
04
08
07
1'
01
00
0/
02
0%
0$
0&
#790000
b10 "
b1010 "
b1 !
18
06
13
0'
12
1&
#800000
b1110 "
b11 !
b1111 "
b111 "
b10 !
08
17
16
14
03
1'
02
11
10
1/
12
0&
1%
1$
1&
#810000
b101 "
b1 "
b1001 "
05
04
13
0'
00
0/
1.
0%
0$
1#
#820000
b11 !
b1101 "
14
18
1'
01
#830000
b1 !
b101 "
b1 "
04
03
07
0'
0.
0#
#840000
b0 "
b10 "
b11 !
b1010 "
b1110 "
17
06
15
14
13
1'
1.
1#
#850000
b1111 "
b1101 "
b1 !
07
16
05
0'
0.
0#
#860000
b0 !
b101 "
b111 "
b10 !
15
03
08
17
1'
10
11
1/
02
12
1%
1$
0&
1&
#870000
b110 "
b100 "
06
05
0'
01
00
02
0%
0&
#880000
b0 !
07
1'
0/
0$
#890000
b1100 "
b1101 "
b1111 "
16
15
13
0'
#900000
b111 "
b110 "
06
03
1'
#910000
b10 "
b1 !
b0 "
18
05
04
0'
12
1&
#920000
b1000 "
b1001 "
b1101 "
b1111 "
16
15
14
13
1'
#930000
b0 !
b111 "
b110 "
b10 "
b0 "
06
05
04
03
08
0'
02
0&
#940000
b10 !
b11 !
b1000 "
b1001 "
b1101 "
b1111 "
16
15
14
13
18
17
1'
1.
12
1#
1&
#950000
b1 !
b1110 "
b1010 "
06
04
07
0'
0.
0#
#960000
b10 "
b11 "
16
03
1'
#970000
b11 !
b111 "
14
17
0'
11
10
1/
1%
1$
#980000
b1111 "
b1110 "
b1 !
07
06
13
1'
01
00
0/
0%
0$
#990000
b0 !
b1100 "
b1000 "
b0 "
b10 !
05
04
03
08
17
0'
02
0&
